<?xml version="1.0" encoding="utf-8"?>
<!-- Generator: Adobe Illustrator 23.0.0, SVG Export Plug-In . SVG Version: 6.00 Build 0)  -->
<svg version="1.1" id="Layer_2" xmlns="http://www.w3.org/2000/svg" xmlns:xlink="http://www.w3.org/1999/xlink" x="0px" y="0px"
	 width="300px" height="32px" viewBox="0 0 300 32" style="enable-background:new 0 0 300 32;" xml:space="preserve">
<style type="text/css">
	.st0{fill:#FFFFFF;}
</style>
<g>
	<path class="st0" d="M60.4,13v13.4H59V13h-4.1v-1.3h9.7L64.2,13H60.4z"/>
	<path class="st0" d="M67.7,15.8c0.8-1,2-1.5,3.7-1.5c1.5,0,2.6,0.4,3.3,1.3c0.6,0.9,1,2.1,1,3.8v6.9h-1.4v-6.7c0-1-0.1-1.9-0.4-2.5
		c-0.5-1.1-1.4-1.6-2.7-1.6c-1.1,0-1.9,0.3-2.5,0.9c-0.6,0.7-0.9,1.8-0.9,3.4v6.5h-1.4V10.2h1.4V15.8z"/>
	<path class="st0" d="M79.2,21.1c0,0.9,0.2,1.5,0.4,2c0.6,1.4,1.9,2.2,3.7,2.2c1,0,2-0.3,2.9-1l0.7,0.9c-0.6,0.5-1.2,0.8-1.8,1
		c-0.6,0.2-1.3,0.3-2.1,0.3c-1.7,0-3-0.5-3.9-1.6c-0.9-1-1.4-2.5-1.4-4.4c0-1.5,0.3-2.9,0.9-4c0.9-1.5,2.2-2.3,4-2.3
		c1.5,0,2.6,0.5,3.3,1.5c0.7,1,1.1,2.4,1.1,4.3c0,0.2,0,0.6,0,1H79.2z M85.8,20c0-1-0.1-1.8-0.2-2.3c-0.2-0.8-0.7-1.4-1.5-1.8
		c-0.4-0.2-0.9-0.3-1.4-0.3c-1.4,0-2.4,0.7-3,2.1c-0.2,0.6-0.4,1.3-0.4,2.3H85.8z"/>
	<path class="st0" d="M96.2,16.1c0.9-1.2,2.3-1.7,4-1.7c1.6,0,2.7,0.5,3.4,1.4c0.6,0.9,0.9,2.2,0.9,3.8v6.8h-1.4v-6.5
		c0-1.1-0.1-1.9-0.4-2.5c-0.5-1.1-1.4-1.7-2.9-1.7c-1.2,0-2.1,0.4-2.7,1.1c-0.6,0.7-0.9,1.8-0.9,3.3v6.4H95V14.5h1.2V16.1z"/>
	<path class="st0" d="M108,21.1c0,0.9,0.2,1.5,0.4,2c0.6,1.4,1.9,2.2,3.7,2.2c1,0,2-0.3,2.9-1l0.7,0.9c-0.6,0.5-1.2,0.8-1.8,1
		c-0.6,0.2-1.3,0.3-2.1,0.3c-1.7,0-3-0.5-3.9-1.6c-0.9-1-1.4-2.5-1.4-4.4c0-1.5,0.3-2.9,0.9-4c0.9-1.5,2.2-2.3,4-2.3
		c1.5,0,2.6,0.5,3.3,1.5c0.7,1,1.1,2.4,1.1,4.3c0,0.2,0,0.6,0,1H108z M114.6,20c0-1-0.1-1.8-0.2-2.3c-0.2-0.8-0.7-1.4-1.5-1.8
		c-0.4-0.2-0.9-0.3-1.4-0.3c-1.4,0-2.4,0.7-3,2.1c-0.2,0.6-0.4,1.3-0.4,2.3H114.6z"/>
	<path class="st0" d="M130.5,14.5h1.5L129,26.4h-1.7l-2.8-10l-2.8,10H120l-2.9-11.9h1.5l2.3,10.2l2.8-9.8h1.7l2.8,9.8L130.5,14.5z"
		/>
	<path class="st0" d="M139.4,15c1.1-0.5,2.3-0.7,3.6-0.7c1.6,0,2.8,0.4,3.5,1.3c0.8,0.9,1.2,2.3,1.2,4.3v6.4h-1.3v-0.9
		c-0.4,0.4-0.8,0.7-1.4,0.8c-0.5,0.2-1.2,0.2-2,0.2c-1.2,0-2.2-0.2-2.8-0.6c-1.1-0.6-1.6-1.7-1.6-3.2c0-1.5,0.5-2.5,1.6-3.2
		c0.7-0.5,1.7-0.7,2.9-0.7c1.2,0,2.3,0.3,3.3,1c0-1.1-0.1-1.9-0.3-2.3c-0.5-1.3-1.6-2-3.4-2c-0.9,0-1.9,0.2-2.8,0.5L139.4,15z
		 M143.1,20.1c-0.9,0-1.5,0.2-2,0.5c-0.7,0.4-1.1,1.2-1.1,2.2c0,1.7,1.1,2.5,3.2,2.5c2.1,0,3.2-0.8,3.2-2.4c0-0.9-0.3-1.6-0.8-2.1
		S144.1,20.1,143.1,20.1z"/>
	<path class="st0" d="M150.2,10.2h1.4v13.3c0,0.6,0.1,0.9,0.2,1.2c0.2,0.4,0.7,0.6,1.3,0.6h0.2v1.3H153c-1,0-1.7-0.2-2.1-0.6
		s-0.6-1.1-0.6-2.1V10.2z"/>
	<path class="st0" d="M155.3,10.2h1.4V16c0.6-0.6,1.1-1.1,1.7-1.3c0.6-0.2,1.3-0.4,2.3-0.4c1.7,0,2.9,0.6,3.8,1.7
		c0.8,1,1.1,2.5,1.1,4.3c0,1.6-0.3,3-0.9,4.1c-0.8,1.4-2.1,2.2-4.1,2.2c-1.7,0-3-0.5-3.8-1.6v1.4h-1.4V10.2z M160.4,15.6
		c-1.3,0-2.3,0.5-2.9,1.5c-0.2,0.3-0.4,0.8-0.6,1.5c-0.1,0.6-0.2,1.3-0.2,1.9c0,1.6,0.3,2.8,0.9,3.6c0.6,0.8,1.6,1.2,2.8,1.2
		c2.5,0,3.7-1.6,3.7-4.8C164.1,17.2,162.8,15.6,160.4,15.6z"/>
	<path class="st0" d="M167.5,14.5h1.4v7c0,1.2,0.3,2.2,0.8,2.8c0.5,0.6,1.3,0.9,2.3,0.9c1,0,1.8-0.3,2.3-0.9
		c0.6-0.6,0.9-1.6,0.9-2.8v-7h1.4v7c0,1.3-0.2,2.4-0.7,3.2c-0.7,1.2-2,1.8-3.9,1.8c-1.5,0-2.7-0.4-3.4-1.2c-0.7-0.8-1.1-2.1-1.1-3.8
		V14.5z"/>
	<path class="st0" d="M187.4,16.5c0.9-1.4,2.2-2.1,4-2.1c2.6,0,3.8,1.6,3.8,4.7v7.4h-1.4v-7.1c0-2.5-0.9-3.7-2.8-3.7
		c-2.1,0-3.1,1.5-3.1,4.4v6.4h-1.4v-7.1c0-2.5-0.9-3.7-2.8-3.7c-2.1,0-3.1,1.5-3.1,4.4v6.4h-1.4V14.5h1.2v1.5
		c0.9-1.2,2.1-1.7,3.6-1.7c0.8,0,1.4,0.2,2,0.5C186.5,15.2,186.9,15.7,187.4,16.5z"/>
	<path class="st0" d="M208.8,11.3c-0.5-0.1-1-0.1-1.5-0.1c-0.9,0-1.6,0.2-2,0.7s-0.6,1.2-0.6,2.3v0.4h3.7l-0.5,1.2h-3.1v10.6h-1.4
		V14.1c0-2.8,1.3-4.2,3.9-4.2c0.5,0,1.1,0.1,1.6,0.2V11.3z"/>
	<path class="st0" d="M211.2,16.3c0.8-1.2,1.9-1.9,3.3-1.9h0.5v1.3h-0.3c-2.3,0.1-3.4,1.6-3.4,4.6v6H210V14.5h1.2V16.3z"/>
	<path class="st0" d="M221.2,14.3c1.9,0,3.3,0.7,4.1,2.2c0.6,1,0.9,2.3,0.9,3.9c0,2.1-0.5,3.7-1.5,4.7c-0.9,0.9-2.1,1.4-3.6,1.4
		c-1.7,0-3.1-0.6-3.9-1.8c-0.8-1-1.2-2.5-1.2-4.4c0-1.6,0.3-2.9,0.9-3.9C217.8,15.1,219.2,14.3,221.2,14.3z M221.1,15.6
		c-1.3,0-2.3,0.5-2.9,1.6c-0.5,0.8-0.8,2-0.8,3.4c0,1.3,0.2,2.3,0.6,3c0.6,1.1,1.7,1.7,3.1,1.7c1.4,0,2.5-0.6,3.1-1.7
		c0.4-0.8,0.6-1.8,0.6-3c0-1.6-0.3-2.8-1-3.7C223.3,16,222.3,15.6,221.1,15.6z"/>
	<path class="st0" d="M236.7,16.5c0.9-1.4,2.2-2.1,4-2.1c2.6,0,3.8,1.6,3.8,4.7v7.4h-1.4v-7.1c0-2.5-0.9-3.7-2.8-3.7
		c-2.1,0-3.1,1.5-3.1,4.4v6.4h-1.4v-7.1c0-2.5-0.9-3.7-2.8-3.7c-2.1,0-3.1,1.5-3.1,4.4v6.4h-1.4V14.5h1.2v1.5
		c0.9-1.2,2.1-1.7,3.6-1.7c0.8,0,1.4,0.2,2,0.5C235.8,15.2,236.2,15.7,236.7,16.5z"/>
</g>
</svg>
