<svg xmlns="http://www.w3.org/2000/svg" viewBox="0 0 452.076 76.796">
  <title>Asset 1</title>
  <g id="Layer_2" data-name="Layer 2">
    <g id="Layer_1-2" data-name="Layer 1">
      <g>
        <path d="M295.6,29.63c-2.171,11.032-3.822,24.5-4.691,30.054H290.3c-.695-5.732-2.345-19.11-4.6-29.967L280.141,2.7H263.2V75.58h10.511V15.507l1.042,5.611L285.439,75.58H295.95l10.51-54.462,1.128-5.644V75.58H318.1V2.7H300.988Z" style="fill: #fff"/>
        <path d="M346.505,64.635a5.923,5.923,0,0,1-5.126,3.388c-2.431,0-3.387-1.911-3.387-6.6V22.334H326.005V62.116c0,9.816,3.214,14.333,10.337,14.333,4.864,0,8.773-2.172,11.466-7.384h.26l1.042,6.515h9.381V22.334H346.505Z" style="fill: #fff"/>
        <path d="M381.684,43.354c-3.909-2.866-6.341-4.777-6.341-8.946,0-2.954,1.39-4.6,4.691-4.6,3.388,0,4.517,2.345,4.6,10.337l10.076-.435c.781-12.943-3.475-18.328-14.506-18.328-10.25,0-15.288,4.6-15.288,14.072,0,8.6,4.169,12.508,10.945,17.632,5.819,4.517,9.207,7.036,9.207,10.685a4.4,4.4,0,0,1-4.778,4.69c-3.561,0-5.645-3.387-5.124-9.294l-10.163.174c-1.564,11.031,2.867,17.459,14.68,17.459,10.336,0,15.722-4.777,15.722-14.332C395.409,53.778,391.065,50.3,381.684,43.354Z" style="fill: #fff"/>
        <rect x="402.011" y="22.334" width="11.466" height="53.246" style="fill: #fff"/>
        <path d="M407.831,1.313c-4.43,0-6.515,1.65-6.515,7.383,0,5.907,2.085,7.384,6.515,7.384,4.517,0,6.515-1.477,6.515-7.384C414.346,3.224,412.348,1.313,407.831,1.313Z" style="fill: #fff"/>
        <path d="M452.044,56.383l-10.511-.521c0,9.382-1.042,12.422-4.6,12.422s-4.17-3.388-4.17-14.42V43.528c0-10.684.695-14.072,4.256-14.072,3.3,0,4.17,3.214,4.17,13.116l10.423-.7c.695-8.251-.347-13.9-3.561-17.112-2.345-2.345-5.907-3.474-10.857-3.474-11.641,0-16.418,6.254-16.418,23.8v7.47c0,18.068,4.083,23.888,15.983,23.888,5.038,0,8.512-1.043,10.857-3.3C451,70.021,452.3,64.635,452.044,56.383Z" style="fill: #fff"/>
      </g>
      <g>
        <path d="M42.834,74.02a13.232,13.232,0,0,1-5.126-7.558,49.471,49.471,0,0,1-1.52-13.64V45.09a44.822,44.822,0,0,1,1.737-13.813,13.853,13.853,0,0,1,5.43-7.6,17.583,17.583,0,0,1,9.686-2.389q5.909,0,9.47,2.433a13.946,13.946,0,0,1,5.213,7.6,46.66,46.66,0,0,1,1.65,13.77v7.732a47.42,47.42,0,0,1-1.607,13.683,13.44,13.44,0,0,1-5.212,7.559q-3.608,2.388-9.774,2.389Q46.439,76.453,42.834,74.02ZM56.3,65.68q1-2.606,1-8.514V40.573a25.679,25.679,0,0,0-1-8.384,3.577,3.577,0,0,0-3.519-2.65,3.525,3.525,0,0,0-3.432,2.65,25.651,25.651,0,0,0-1,8.384V57.166q0,5.909.956,8.514a3.493,3.493,0,0,0,3.475,2.606A3.569,3.569,0,0,0,56.3,65.68Z" style="fill: #fff"/>
        <path d="M227.355,52.949v2.693a70.839,70.839,0,0,0,.3,7.689,7.289,7.289,0,0,0,1.26,3.736,3.586,3.586,0,0,0,2.954,1.173,3.719,3.719,0,0,0,3.692-2.086q1-2.083,1.086-6.95l10.338.608a16.291,16.291,0,0,1,.087,1.912q0,7.385-4.039,11.033t-11.425,3.649q-8.86,0-12.424-5.56t-3.562-17.2v-9.3q0-11.99,3.693-17.506t12.641-5.517q6.168,0,9.469,2.259a12.119,12.119,0,0,1,4.648,7.037,50.853,50.853,0,0,1,1.347,13.206v9.122Zm1.519-22.414a7.336,7.336,0,0,0-1.216,3.692,71.958,71.958,0,0,0-.3,7.775v3.823h8.773V42a65.017,65.017,0,0,0-.346-7.775,7.463,7.463,0,0,0-1.26-3.736,3.484,3.484,0,0,0-2.824-1.086A3.418,3.418,0,0,0,228.874,30.535Z" style="fill: #fff"/>
        <path d="M13.64,51.952,0,2.692H11.9L16.68,25.02q1.825,8.255,2.693,14.074h.348q.608-4.17,2.693-13.987L27.366,2.692h11.9L25.455,51.952V75.584H13.64Z" style="fill: #fff"/>
        <path d="M108.084,22.328V75.583H98.7l-1.042-6.515H97.4q-3.823,7.385-11.468,7.384-5.3,0-7.818-3.475t-2.52-10.859V22.328H87.581v39.1a11.933,11.933,0,0,0,.782,5.082,2.7,2.7,0,0,0,2.606,1.52,5.314,5.314,0,0,0,3-.956A5.909,5.909,0,0,0,96.1,64.637V22.328Z" style="fill: #fff"/>
        <path d="M169.58,22.328V75.583H160.2l-1.042-6.515h-.261q-3.824,7.385-11.468,7.384-5.3,0-7.818-3.475t-2.52-10.859V22.328h11.989v39.1a11.933,11.933,0,0,0,.782,5.082,2.7,2.7,0,0,0,2.606,1.52,5.314,5.314,0,0,0,3-.956,5.909,5.909,0,0,0,2.129-2.432V22.328Z" style="fill: #fff"/>
        <path d="M140.662,12.337h-11.9V75.583H117.032V12.337h-11.9V2.694h35.532Z" style="fill: #fff"/>
        <path d="M209.259,30.841q-1.088-5.037-3.519-7.3a9.452,9.452,0,0,0-6.689-2.259,11.091,11.091,0,0,0-6.168,1.868,12.7,12.7,0,0,0-4.431,4.909h-.088V0H176.811V75.583h9.9l1.217-5.039h.26a10.169,10.169,0,0,0,4.17,4.257,12.36,12.36,0,0,0,6.169,1.564,9.441,9.441,0,0,0,8.948-5.6q2.867-5.6,2.867-17.5V44.829A70,70,0,0,0,209.259,30.841Zm-10.99,21.723a67.386,67.386,0,0,1-.478,9.122,9.856,9.856,0,0,1-1.607,4.691,3.711,3.711,0,0,1-3.04,1.39,5.55,5.55,0,0,1-2.737-.695,5.244,5.244,0,0,1-2.042-2.085V34.754a7.577,7.577,0,0,1,2.085-3.562,4.617,4.617,0,0,1,3.215-1.39,3.24,3.24,0,0,1,2.823,1.434,11.025,11.025,0,0,1,1.39,4.822,89.831,89.831,0,0,1,.391,9.642Z" style="fill: #fff"/>
      </g>
    </g>
  </g>
</svg>
